<svg width="11" height="8" viewBox="0 0 11 8" fill="none" xmlns="http://www.w3.org/2000/svg">
<path d="M5.574 0.6L10.558 4.1L5.574 7.6V0.6ZM0.324 7.6V0.6L5.308 4.1L0.324 7.6Z" fill="#878787"/>
</svg>
