<svg width="20" height="17" viewBox="0 0 20 17" fill="none" xmlns="http://www.w3.org/2000/svg">
<path fill-rule="evenodd" clip-rule="evenodd" d="M2.10531 0.526367C2.97734 0.526367 3.68426 1.23329 3.68426 2.10531C3.68426 2.97734 2.97734 3.68426 2.10531 3.68426C1.23329 3.68426 0.526367 2.97734 0.526367 2.10531C0.526367 1.23329 1.23329 0.526367 2.10531 0.526367ZM20.0001 1.05268H5.26321V3.15795H20.0001V1.05268ZM20.0001 7.36847H5.26321V9.47374H20.0001V7.36847ZM3.68426 8.4211C3.68426 7.54908 2.97734 6.84216 2.10531 6.84216C1.23329 6.84216 0.526367 7.54908 0.526367 8.4211C0.526367 9.29313 1.23329 10.0001 2.10531 10.0001C2.97734 10.0001 3.68426 9.29313 3.68426 8.4211ZM5.26321 15.7895V13.6843H20.0001V15.7895H5.26321ZM3.68426 14.7369C3.68426 13.8649 2.97734 13.1579 2.10531 13.1579C1.23329 13.1579 0.526367 13.8649 0.526367 14.7369C0.526367 15.6089 1.23329 16.3158 2.10531 16.3158C2.97734 16.3158 3.68426 15.6089 3.68426 14.7369Z" fill="white"/>
</svg>
