<svg width="7" height="10" viewBox="0 0 7 10" fill="none" xmlns="http://www.w3.org/2000/svg">
<path d="M6.86 1.18L3.02 5L6.86 8.82L5.68 10L0.68 5L5.68 -4.76837e-07L6.86 1.18Z" fill="#222C37"/>
</svg>
