{
    "/js/app.js": "/js/app.js?id=22c730c323bafa63765a",
    "/css/app.css": "/css/app.css?id=3103cd90e1ad275bfbeb",
    "/css/style.css": "/css/style.css?id=34d83629c5a19655de5d",
    "/js/script.js": "/js/script.js?id=152678eba6a8695a87cd",
    "/js/admin/dataTables.buttons.min.js": "/js/admin/dataTables.buttons.min.js?id=cff33255bfecdd0287ff",
    "/js/admin/buttons.print.min.js": "/js/admin/buttons.print.min.js?id=dc359e6634a9b1b70b33",
    "/js/admin/icheck.js": "/js/admin/icheck.js?id=007b8ef03ba6181bde09",
    "/js/admin/adminlte.min.js": "/js/admin/adminlte.min.js?id=89df5d864fcaf07f9d7c",
    "/js/admin/demo.js": "/js/admin/demo.js?id=33c9a272c0ff56921eb9",
    "/css/admin/blue.css": "/css/admin/blue.css?id=ba3a161e0ce8a0e664a8",
    "/css/admin/bootstrap-editable.css": "/css/admin/bootstrap-editable.css?id=a9be1e4770aa3d86e78c",
    "/css/admin/skin-blue.css": "/css/admin/skin-blue.css?id=feab0d4e06b900784c57",
    "/css/admin/blue@2x.png": "/css/admin/blue@2x.png?id=127d7cfbb176dc559854"
}
